[comment encoding = UTF-8 /]
[module generateOneScenario('http://fr.ubo.mde.cares/scn','http://fr.ubo.mde.cares/dcl', 'http://fr.ubo.mde.cares/sys')]
[import acceleo::java::cares::dcl::Template_utils/]
[import acceleo::java::cares::scn::Utility-scn/]

[template public generateOneScenario(aScenario : Scenario)]
[let scenarioName : String = aScenario.name.toUpperFirst()]
[file ('cares/scenario/'.concat(scenarioName.concat('.java')), false, 'UTF-8') ]
/* 
 * Scenario implementation
 *
 * Generated by Cares generator, written with Acceleo
 * Author: jpb
 */

package cares.scenario;

import cares.framework.*;
import cares.factory.*;

public class [scenarioName/] extends Scenario{

	protected [aScenario.eContainer().oclAsType(Simulation).caresSystem.rootSystemComponent.name.toUpperFirst()/] application;
	
	public [scenarioName/](RootComponent root) {
		super(root);
		application = ([aScenario.eContainer().oclAsType(Simulation).caresSystem.rootSystemComponent.name.toUpperFirst()/]) root;
	}
	
	public void eventSimulation() {		 
[for (evt : Event | aScenario.events)]
[if (evt.oclIsTypeOf(BasicEvent))]	
		if (Clock.getCurrentMS()==[evt.time/]) {
[for (action : Action | evt.oclAsType(BasicEvent).actions)]
[if (action.oclIsTypeOf(ComponentStart))]
			application.get_[action.oclAsType(ComponentStart).component.name/]().start();
[/if]
[if (action.oclIsTypeOf(ComponentStop))]
			application.get_[action.oclAsType(ComponentStop).component.name/]().stop();
[/if]
[if (action.oclIsKindOf(ParameterChange))]
			application.get_[setParameterChange( action.oclAsType( ParameterChange))/]; 
[/if]
[/for]
		}
[/if]
[/for]
	}
}
[/file]
[/let]
[/template]

