[comment encoding = UTF-8 /]
[module SimulationGeneration('http://fr.ubo.mde.cares/scn')/]
[import acceleo::java::cares::scn::generateMain/]
[import acceleo::java::cares::scn::generateScenarios/]

[template public generateSimulation(aSimulation : Simulation)]
[comment @main /]
	[generateMain(aSimulation)/]
	[generateScenarios(aSimulation)/]
[/template]
