[comment encoding = UTF-8 /]
[module Utility('http://fr.ubo.mde.cares/sys','http://fr.ubo.mde.cares/dcl')]

[query public getCompleteName(arg0 : LeafComponent) : String
	= invoke('acceleo.cpp.cares.sys.Utility', 'getCompleteName(fr.ubo.cares.sys.LeafComponent)', Sequence{arg0})
/]

[query public getPortProducer(arg0 : LeafInputPort) : LeafOutputPort
	= invoke('acceleo.cpp.cares.sys.Utility', 'getPortProducer(fr.ubo.cares.sys.LeafInputPort)', Sequence{arg0})
/]

[query public getProducer(arg0 : LeafInputPort) : LeafComponent
	= invoke('acceleo.cpp.cares.sys.Utility', 'getProducer(fr.ubo.cares.sys.LeafInputPort)', Sequence{arg0})
/]

[query public getRoot(arg0 : Component) : CompositeComponent
	= arg0.eContainer(CaresSystem).rootSystemComponent
/]

[query public uriString(arg0 : ParameterInstanciation) : Boolean
	= invoke('acceleo.cpp.cares.sys.Utility', 'uriString(fr.ubo.cares.dcl.ParameterInstanciation)', Sequence{arg0})
/]

[query public doScheduling(arg0 : CompositeComponent) : Sequence(LeafComponent)
	= invoke('acceleo.cpp.cares.sys.Scheduling', 'OrderPriority(fr.ubo.cares.sys.CompositeComponent)', Sequence{arg0})
/]

[query public setFrequency(arg0 : CompositeComponent) : Void
	= invoke('acceleo.cpp.cares.sys.Frequency', 'setFrequency(fr.ubo.cares.sys.CompositeComponent)', Sequence{arg0})
/]

[query public typeChecking(arg0 : CompositeComponent) : Boolean
	= invoke('acceleo.cpp.cares.sys.TypeChecking', 'typeCheck(fr.ubo.cares.sys.CompositeComponent)', Sequence{arg0})
/]
[query public callLink(arg0 : RequiredInterfacePort) : String
	= invoke('acceleo.cpp.cares.sys.Utility', 'callLink( fr.ubo.cares.sys.RequiredInterfacePort )', Sequence{arg0})
/]
[query public callLinks(arg0 : RequiredInterfacePort) : Boolean
	= invoke('acceleo.cpp.cares.sys.Utility', 'callLinks( fr.ubo.cares.sys.RequiredInterfacePort )', Sequence{arg0})
/]
